%YAML 1.1
%TAG !u! tag:unity3d.com,2011:
--- !u!114 &11400000
MonoBehaviour:
  m_ObjectHideFlags: 0
  m_CorrespondingSourceObject: {fileID: 0}
  m_PrefabInstance: {fileID: 0}
  m_PrefabAsset: {fileID: 0}
  m_GameObject: {fileID: 0}
  m_Enabled: 1
  m_EditorHideFlags: 0
  m_Script: {fileID: 11500000, guid: 13587fa391005cf489911c1491d9dc7c, type: 3}
  m_Name: BeastSpirit
  m_EditorClassIdentifier: 
  _character: {fileID: 11400000, guid: f6c2ab78bdd29c14b8f1b9300187bc35, type: 2}
  SkillName: "\u0414\u0443\u0445 \u0437\u0432\u0435\u0440\u044F"
  SkillDisc: "\u0412\u0440\u0435\u043C\u0435\u043D\u043D\u043E \u0432\u0441\u0435\u043B\u044F\u0435\u0442
    \u0432 \u0441\u0435\u0431\u044F \u0434\u0443\u0445 \u0437\u0432\u0435\u0440\u044F,
    \u0443\u0432\u0435\u043B\u0438\u0447\u0438\u0432\u0430\u044F \u0441\u0432\u043E\u044E
    \u0441\u043A\u043E\u0440\u043E\u0441\u0442\u044C \u0430\u0442\u0430\u043A\u0438,
    \u0431\u0435\u0433\u0430 \u0438 \u0437\u0430\u0449\u0438\u0442\u0443"
  SkillIcon: {fileID: 21300000, guid: 941494e9a05bf82488bb70bb6294d10d, type: 3}
  skillType: 0
  isInvestigated: 0
  SkillLevel: 1
  Dmg: 0
  UseSpeed: 10
  ActTime: 5
  NedeedMP: 100
  SkillPrefab: {fileID: 0}
  isbuff: 1
  addMoveSpeed: 5
  addSpdAttack: 5
  addArrmor: 7
  addHp: 0
  addMp: 0
  maxHp: 0
  maxMp: 0
  addPAttack: 0
  addMAttack: 0
  _minLvlToLearn: 0
  _skillsBlockMe: []
  _skillsPrevsMe: []
