%YAML 1.1
%TAG !u! tag:unity3d.com,2011:
--- !u!114 &11400000
MonoBehaviour:
  m_ObjectHideFlags: 0
  m_CorrespondingSourceObject: {fileID: 0}
  m_PrefabInstance: {fileID: 0}
  m_PrefabAsset: {fileID: 0}
  m_GameObject: {fileID: 0}
  m_Enabled: 1
  m_EditorHideFlags: 0
  m_Script: {fileID: 11500000, guid: 13587fa391005cf489911c1491d9dc7c, type: 3}
  m_Name: NaturalDefense
  m_EditorClassIdentifier: 
  _character: {fileID: 11400000, guid: f6c2ab78bdd29c14b8f1b9300187bc35, type: 2}
  SkillName: "\u041F\u0440\u0438\u0440\u043E\u0434\u043D\u0430\u044F \u0437\u0430\u0449\u0438\u0442\u0430"
  SkillDisc: "\u041F\u043E\u0441\u0442\u043E\u044F\u043D\u043D\u043E \u0443\u0432\u0435\u043B\u0438\u0447\u0438\u0432\u0430\u0435\u0442
    \u0437\u0430\u0449\u0438\u0442\u0443 \u0433\u0435\u0440\u043E\u044F"
  SkillIcon: {fileID: 21300000, guid: db3db375b414b524baae55368f8f6574, type: 3}
  skillType: 1
  isInvestigated: 0
  SkillLevel: 0
  Dmg: 0
  UseSpeed: 0
  ActTime: 0
  NedeedMP: 0
  SkillPrefab: {fileID: 0}
  isbuff: 1
  addMoveSpeed: 0
  addSpdAttack: 0
  addArrmor: 7
  addHp: 0
  addMp: 0
  maxHp: 0
  maxMp: 0
  addPAttack: 0
  addMAttack: 0
  _minLvlToLearn: 6
  _skillsBlockMe:
  - {fileID: 11400000, guid: fe0bd4e0226b8d645ac49b6ccfc48d17, type: 2}
  _skillsPrevsMe:
  - {fileID: 11400000, guid: 7663816597fb50a4a96babaab751fbea, type: 2}
