%YAML 1.1
%TAG !u! tag:unity3d.com,2011:
--- !u!114 &11400000
MonoBehaviour:
  m_ObjectHideFlags: 0
  m_CorrespondingSourceObject: {fileID: 0}
  m_PrefabInstance: {fileID: 0}
  m_PrefabAsset: {fileID: 0}
  m_GameObject: {fileID: 0}
  m_Enabled: 1
  m_EditorHideFlags: 0
  m_Script: {fileID: 11500000, guid: abf58dcfbec17c642b45527689aea834, type: 3}
  m_Name: NewItem 17
  m_EditorClassIdentifier: 
  ItemName: "\u0411\u043E\u043B\u044C\u0448\u043E\u0439 \u0437\u043E\u043B\u043E\u0442\u043E\u0439
    \u0447\u0435\u0440\u0435\u043F"
  ItemDiscr: "\u0411\u043E\u043B\u044C\u0448\u043E\u0439 \u0447\u0435\u0440\u0435\u043F,
    \u043F\u043E\u043A\u0440\u044B\u0442\u044B\u0439 \u0437\u043E\u043B\u043E\u0442\u043E\u043C
    - \u043B\u0443\u0447\u0448\u0438\u0439 \u0442\u0440\u043E\u0444\u0435\u0439\r\n"
  ItemIcon: {fileID: 21300000, guid: 75a62c755ec9dfe4ea87e5493e72b442, type: 3}
  itemTyepe: 0
  ItemBuyPrice: 85
  ItemSellPrice: 45
  isStacable: 1
