%YAML 1.1
%TAG !u! tag:unity3d.com,2011:
--- !u!114 &11400000
MonoBehaviour:
  m_ObjectHideFlags: 0
  m_CorrespondingSourceObject: {fileID: 0}
  m_PrefabInstance: {fileID: 0}
  m_PrefabAsset: {fileID: 0}
  m_GameObject: {fileID: 0}
  m_Enabled: 1
  m_EditorHideFlags: 0
  m_Script: {fileID: 11500000, guid: abf58dcfbec17c642b45527689aea834, type: 3}
  m_Name: NewItem 15
  m_EditorClassIdentifier: 
  ItemName: "\u0421\u0435\u0442\u043A\u0430"
  ItemDiscr: "\u0421\u0435\u0442\u044C \u043E\u0445\u043E\u0442\u043D\u0438\u043A\u0430"
  ItemIcon: {fileID: 21300000, guid: 4e85c38fb4f9ce24e84c1c963f6f245c, type: 3}
  itemTyepe: 0
  ItemBuyPrice: 25
  ItemSellPrice: 15
  isStacable: 1
