%YAML 1.1
%TAG !u! tag:unity3d.com,2011:
--- !u!114 &11400000
MonoBehaviour:
  m_ObjectHideFlags: 0
  m_CorrespondingSourceObject: {fileID: 0}
  m_PrefabInstance: {fileID: 0}
  m_PrefabAsset: {fileID: 0}
  m_GameObject: {fileID: 0}
  m_Enabled: 1
  m_EditorHideFlags: 0
  m_Script: {fileID: 11500000, guid: 13587fa391005cf489911c1491d9dc7c, type: 3}
  m_Name: Machetes
  m_EditorClassIdentifier: 
  _character: {fileID: 11400000, guid: 9b1d5afcd5bbc4541bda0732693a85e7, type: 2}
  SkillName: "\u041C\u0430\u0447\u0435\u0442\u044B"
  SkillDisc: "\u0423\u0432\u0435\u043B\u0438\u0447\u0438\u0432\u0430\u0435\u0442 \u0441\u043A\u043E\u0440\u043E\u0441\u0442\u044C
    \u0438 \u0441\u0438\u043B\u0443 \u0444\u0438\u0437. \u0430\u0442\u0430\u043A\u0438
    \u043F\u0440\u0438 \u0438\u0441\u043F\u043E\u043B\u044C\u0437\u043E\u0432\u0430\u043D\u0438\u0438
    \u043B\u0435\u0433\u043A\u0438\u0445 \u043C\u0435\u0447\u0435\u0439 \u0438 \u043A\u0438\u043D\u0436\u0430\u043B\u043E\u0432"
  SkillIcon: {fileID: 21300000, guid: e256a46518a92fe49a558988075bdaf5, type: 3}
  skillType: 1
  isInvestigated: 0
  SkillLevel: 0
  Dmg: 0
  UseSpeed: 0
  ActTime: 0
  NedeedMP: 0
  SkillPrefab: {fileID: 0}
  isbuff: 1
  addMoveSpeed: 0
  addSpdAttack: 8
  addArrmor: 0
  addHp: 0
  addMp: 0
  maxHp: 0
  maxMp: 0
  addPAttack: 15
  addMAttack: 0
  _minLvlToLearn: 12
  _skillsBlockMe:
  - {fileID: 11400000, guid: c79d816c49135684cac61af278a8645c, type: 2}
  _skillsPrevsMe:
  - {fileID: 11400000, guid: 716152aebd4a731448ba132ab3d60946, type: 2}
  - {fileID: 11400000, guid: 7596d1bf80a38c247880292e453d3869, type: 2}
