%YAML 1.1
%TAG !u! tag:unity3d.com,2011:
--- !u!114 &11400000
MonoBehaviour:
  m_ObjectHideFlags: 0
  m_CorrespondingSourceObject: {fileID: 0}
  m_PrefabInstance: {fileID: 0}
  m_PrefabAsset: {fileID: 0}
  m_GameObject: {fileID: 0}
  m_Enabled: 1
  m_EditorHideFlags: 0
  m_Script: {fileID: 11500000, guid: 13587fa391005cf489911c1491d9dc7c, type: 3}
  m_Name: Night
  m_EditorClassIdentifier: 
  _character: {fileID: 11400000, guid: 9b1d5afcd5bbc4541bda0732693a85e7, type: 2}
  SkillName: "\u041D\u043E\u0447\u044C"
  SkillDisc: "\u041E\u0431\u0440\u0443\u0448\u0438\u0432\u0430\u0435\u0442 \u043D\u043E\u0447\u044C
    \u0438 \u043F\u043E\u0432\u044B\u0448\u0430\u0435\u0442 \u0443\u0440\u043E\u043D,
    \u0441\u043A\u043E\u0440\u043E\u0441\u0442\u044C \u0430\u0442\u0430\u043A\u0438
    \u0438 \u0431\u0435\u0433\u0430 \u0433\u0435\u0440\u043E\u044F\r"
  SkillIcon: {fileID: 21300000, guid: 2f0dc283cfa47d145bfadc8a47867c83, type: 3}
  skillType: 0
  isInvestigated: 0
  SkillLevel: 0
  Dmg: 0
  UseSpeed: 13
  ActTime: 0
  NedeedMP: 400
  SkillPrefab: {fileID: 0}
  isbuff: 1
  addMoveSpeed: 15
  addSpdAttack: 10
  addArrmor: 0
  addHp: 0
  addMp: 0
  maxHp: 0
  maxMp: 0
  addPAttack: 7
  addMAttack: 7
  _minLvlToLearn: 6
  _skillsBlockMe:
  - {fileID: 11400000, guid: 716152aebd4a731448ba132ab3d60946, type: 2}
  _skillsPrevsMe:
  - {fileID: 11400000, guid: 521fe61605a0a6946ac8f57bed8b1fac, type: 2}
