%YAML 1.1
%TAG !u! tag:unity3d.com,2011:
--- !u!114 &11400000
MonoBehaviour:
  m_ObjectHideFlags: 0
  m_CorrespondingSourceObject: {fileID: 0}
  m_PrefabInstance: {fileID: 0}
  m_PrefabAsset: {fileID: 0}
  m_GameObject: {fileID: 0}
  m_Enabled: 1
  m_EditorHideFlags: 0
  m_Script: {fileID: 11500000, guid: 13587fa391005cf489911c1491d9dc7c, type: 3}
  m_Name: VampireSpirit
  m_EditorClassIdentifier: 
  _character: {fileID: 11400000, guid: 9b1d5afcd5bbc4541bda0732693a85e7, type: 2}
  SkillName: "\u0412\u0430\u043C\u043F\u0438\u0440\u0441\u043A\u0438\u0439 \u0434\u0443\u0445"
  SkillDisc: "\u0423\u0432\u0435\u043B\u0438\u0447\u0438\u0432\u0430\u0435\u0442 \u043A\u043E\u043B-\u0432\u043E
    HP \u0438 \u0441\u0438\u043B\u0443 \u0430\u0442\u0430\u043A\u0438 \u0433\u0435\u0440\u043E\u044F"
  SkillIcon: {fileID: 21300000, guid: a6c984602c64bff4faac056ac7ffce12, type: 3}
  skillType: 1
  isInvestigated: 0
  SkillLevel: 0
  Dmg: 0
  UseSpeed: 0
  ActTime: 0
  NedeedMP: 0
  SkillPrefab: {fileID: 0}
  isbuff: 0
  addMoveSpeed: 0
  addSpdAttack: 0
  addArrmor: 0
  addHp: 0
  addMp: 0
  maxHp: 10
  maxMp: 0
  addPAttack: 10
  addMAttack: 10
  _minLvlToLearn: 12
  _skillsBlockMe:
  - {fileID: 11400000, guid: baa58a822f193b8469473acb6ae38f66, type: 2}
  _skillsPrevsMe:
  - {fileID: 11400000, guid: 07727e49f7729ea45928792e136b2f3b, type: 2}
