%YAML 1.1
%TAG !u! tag:unity3d.com,2011:
--- !u!114 &11400000
MonoBehaviour:
  m_ObjectHideFlags: 0
  m_CorrespondingSourceObject: {fileID: 0}
  m_PrefabInstance: {fileID: 0}
  m_PrefabAsset: {fileID: 0}
  m_GameObject: {fileID: 0}
  m_Enabled: 1
  m_EditorHideFlags: 0
  m_Script: {fileID: 11500000, guid: 9f3758f8f58fdef43803eb9be1df0608, type: 3}
  m_Name: PhotonServerSettings
  m_EditorClassIdentifier: 
  AppSettings:
    AppIdRealtime: a632b2bc-1a12-442a-9faf-2237adce0ff6
    AppIdChat: 
    AppIdVoice: 
    AppVersion: 1
    UseNameServer: 1
    FixedRegion: ru
    Server: 
    Port: 0
    Protocol: 0
    EnableLobbyStatistics: 0
    NetworkLogging: 1
  PunLogging: 0
  EnableSupportLogger: 0
  RunInBackground: 1
  StartInOfflineMode: 0
  RpcList:
  - ClickRpc
  - DestroyRpc
  DisableAutoOpenWizard: 1
  ShowSettings: 1
