%YAML 1.1
%TAG !u! tag:unity3d.com,2011:
--- !u!114 &11400000
MonoBehaviour:
  m_ObjectHideFlags: 0
  m_CorrespondingSourceObject: {fileID: 0}
  m_PrefabInstance: {fileID: 0}
  m_PrefabAsset: {fileID: 0}
  m_GameObject: {fileID: 0}
  m_Enabled: 1
  m_EditorHideFlags: 0
  m_Script: {fileID: 11500000, guid: 3a3220883e21c314d9df430f7021861e, type: 3}
  m_Name: LifePoison
  m_EditorClassIdentifier: 
  ItemName: "\u0411\u0430\u043D\u043A\u0430 \u0436\u0438\u0437\u043D\u0438"
  ItemDiscr: "\u041C\u0430\u0433\u0438\u0447\u0435\u0441\u043A\u043E\u0435 \u0437\u0435\u043B\u044C\u0435,
    \u0447\u0442\u043E \u043C\u0433\u043D\u043E\u0432\u0435\u043D\u043D\u043E \u0432\u043E\u0441\u0441\u0442\u0430\u043D\u0430\u0432\u043B\u0438\u0432\u0430\u0435\u0442
    50% \u0436\u0438\u0437\u043D\u0438 \u0412\u0430\u0448\u0435\u0433\u043E \u0433\u0435\u0440\u043E\u044F."
  ItemIcon: {fileID: 21300000, guid: 511455245c9ed29478295f2743402158, type: 3}
  equipWeaponType: 1
  itemTyepe: 2
  ItemBuyPrice: 300
  ItemSellPrice: 150
  isStacable: 1
  addHp: 50
  addMp: 0
