%YAML 1.1
%TAG !u! tag:unity3d.com,2011:
--- !u!114 &11400000
MonoBehaviour:
  m_ObjectHideFlags: 0
  m_CorrespondingSourceObject: {fileID: 0}
  m_PrefabInstance: {fileID: 0}
  m_PrefabAsset: {fileID: 0}
  m_GameObject: {fileID: 0}
  m_Enabled: 1
  m_EditorHideFlags: 0
  m_Script: {fileID: 11500000, guid: 9f15e05ab5e46f549a0c3744082f6eba, type: 3}
  m_Name: bow1
  m_EditorClassIdentifier: 
  ItemName: "\u041F\u0440\u043E\u0441\u0442\u043E\u0439 \u0434\u0435\u0440\u0435\u0432\u044F\u043D\u043D\u044B\u0439
    \u043B\u0443\u043A"
  ItemDiscr: "\u041F\u0440\u043E\u0441\u0442\u043E\u0439 \u0438 \u043B\u0435\u0433\u043A\u0438\u0439
    \u0434\u0435\u0440\u0435\u0432\u044F\u043D\u043D\u044B\u0439 \u043B\u0443\u043A.\r\n"
  ItemIcon: {fileID: 21300000, guid: b728c8446b74f7c48a5eae511c72af05, type: 3}
  equipWeaponType: 4
  itemTyepe: 1
  ItemBuyPrice: 200
  ItemSellPrice: 100
  isStacable: 0
  NeededLevel: 0
  rarity: 0
  hiroType: 0
  isTwoHeand: 1
  addForce: 0
  addAgility: 0
  addMind: 0
  addPAttack: 10
  addMAttack: 0
  addArmor: 0
  AddSpdAttack: 0
  addMoveSpeed: 0
  addMaxHp: 0
  addMaxMp: 0
  bulletsPrefab: {fileID: 0}
