%YAML 1.1
%TAG !u! tag:unity3d.com,2011:
--- !u!114 &11400000
MonoBehaviour:
  m_ObjectHideFlags: 0
  m_CorrespondingSourceObject: {fileID: 0}
  m_PrefabInstance: {fileID: 0}
  m_PrefabAsset: {fileID: 0}
  m_GameObject: {fileID: 0}
  m_Enabled: 1
  m_EditorHideFlags: 0
  m_Script: {fileID: 11500000, guid: 9f15e05ab5e46f549a0c3744082f6eba, type: 3}
  m_Name: twohand_sword 1
  m_EditorClassIdentifier: 
  ItemName: "\u0420\u044B\u0446\u0430\u0440\u0441\u043A\u0438\u0439 \u0434\u0432\u0443\u0440\u0443\u0447\u043D\u044B\u0439
    \u043C\u0435\u0447"
  ItemDiscr: "\u0411\u043E\u043B\u044C\u0448\u043E\u0439 \u0438 \u043E\u0441\u0442\u0440\u044B\u0439
    \u0434\u0432\u0443\u0440\u0443\u0447\u043D\u044B\u0439 \u043C\u0435\u0447 \u0441\u043E
    \u0441\u043F\u0435\u0446\u0438\u0430\u043B\u044C\u043D\u043E\u0439 \u0437\u0430\u0449\u0438\u0442\u043D\u043E\u0439
    \u043F\u0440\u0438\u043C\u043E\u0447\u043A\u043E\u0439."
  ItemIcon: {fileID: 21300000, guid: f3f2fc1f112d9c546a4aee16c57e3750, type: 3}
  equipWeaponType: 2
  itemTyepe: 1
  ItemBuyPrice: 330
  ItemSellPrice: 150
  isStacable: 0
  NeededLevel: 0
  rarity: 0
  hiroType: 1
  isTwoHeand: 1
  addForce: 0
  addAgility: 0
  addMind: 0
  addPAttack: 16
  addMAttack: 0
  addArmor: 2
  AddSpdAttack: 0
  addMoveSpeed: 0
  addMaxHp: 0
  addMaxMp: 0
  bulletsPrefab: {fileID: 0}
