%YAML 1.1
%TAG !u! tag:unity3d.com,2011:
--- !u!114 &11400000
MonoBehaviour:
  m_ObjectHideFlags: 0
  m_CorrespondingSourceObject: {fileID: 0}
  m_PrefabInstance: {fileID: 0}
  m_PrefabAsset: {fileID: 0}
  m_GameObject: {fileID: 0}
  m_Enabled: 1
  m_EditorHideFlags: 0
  m_Script: {fileID: 11500000, guid: 9f15e05ab5e46f549a0c3744082f6eba, type: 3}
  m_Name: twohand_mace 1
  m_EditorClassIdentifier: 
  ItemName: "\u0414\u0432\u0443\u0440\u0443\u0447\u043D\u044B\u0439 \u043C\u043E\u043B\u043E\u0442"
  ItemDiscr: "\u0411\u043E\u043B\u044C\u0448\u043E\u0439 \u0434\u0432\u0443\u0440\u0443\u0447\u043D\u044B\u0439
    \u043C\u043E\u043B\u043E\u0442."
  ItemIcon: {fileID: 21300000, guid: faebe328bac85444eb70207f96e411a1, type: 3}
  equipWeaponType: 2
  itemTyepe: 1
  ItemBuyPrice: 1100
  ItemSellPrice: 500
  isStacable: 0
  NeededLevel: 5
  rarity: 0
  hiroType: 1
  isTwoHeand: 1
  addForce: 0
  addAgility: 0
  addMind: 0
  addPAttack: 21
  addMAttack: 0
  addArmor: 0
  AddSpdAttack: -3
  addMoveSpeed: -2
  addMaxHp: 0
  addMaxMp: 0
  bulletsPrefab: {fileID: 0}
