%YAML 1.1
%TAG !u! tag:unity3d.com,2011:
--- !u!114 &11400000
MonoBehaviour:
  m_ObjectHideFlags: 0
  m_CorrespondingSourceObject: {fileID: 0}
  m_PrefabInstance: {fileID: 0}
  m_PrefabAsset: {fileID: 0}
  m_GameObject: {fileID: 0}
  m_Enabled: 1
  m_EditorHideFlags: 0
  m_Script: {fileID: 11500000, guid: 24da9556ebb9bc743904dfdd5b564caa, type: 3}
  m_Name: Boots_19
  m_EditorClassIdentifier: 
  ItemName: "\u0423\u043B\u0443\u0447\u0448\u0435\u043D\u043D\u044B\u0435 \u0441\u0430\u043F\u043E\u0433\u0438
    \u0432\u043E\u043B\u0448\u0435\u0431\u043D\u0438\u043A\u0430"
  ItemDiscr: "\u0423\u043B\u0443\u0447\u0448\u0435\u043D\u043D\u044B\u0435 \u0441\u0430\u043F\u043E\u0433\u0438
    \u0432\u0435\u043B\u0438\u043A\u043E\u0433\u043E \u0432\u043E\u043B\u0448\u0435\u0431\u043D\u0438\u043A\u0430
    \u0441 \u0445\u043E\u0440\u043E\u0448\u0435\u0439 \u0437\u0430\u0449\u0438\u0442\u043E\u0439."
  ItemIcon: {fileID: 21300000, guid: 0d5ea366488f6c14192cc0bb3157ac38, type: 3}
  equipWeaponType: 5
  itemTyepe: 3
  ItemBuyPrice: 6000
  ItemSellPrice: 3000
  isStacable: 0
  NeededLevel: 45
  NeededSlot: 7
  rarity: 2
  addForce: 0
  addAgility: 0
  addMind: 0
  addPAttack: 0
  addMAttack: 3
  addArmor: 21
  AddSpdAttack: 0
  addMoveSpeed: 4
  addMaxHp: 6
  addMaxMp: 6
