%YAML 1.1
%TAG !u! tag:unity3d.com,2011:
--- !u!114 &11400000
MonoBehaviour:
  m_ObjectHideFlags: 0
  m_CorrespondingSourceObject: {fileID: 0}
  m_PrefabInstance: {fileID: 0}
  m_PrefabAsset: {fileID: 0}
  m_GameObject: {fileID: 0}
  m_Enabled: 1
  m_EditorHideFlags: 0
  m_Script: {fileID: 11500000, guid: 24da9556ebb9bc743904dfdd5b564caa, type: 3}
  m_Name: Boots_15
  m_EditorClassIdentifier: 
  ItemName: "\u0412\u0435\u043B\u0438\u043A\u043E\u043B\u0435\u043F\u043D\u044B\u0435
    \u043C\u0430\u0433\u0438\u0447\u0435\u0441\u043A\u0438\u0435 \u0441\u0430\u043F\u043E\u0433\u0438"
  ItemDiscr: "\u041B\u0443\u0447\u0448\u0438\u0435 \u043C\u0430\u0433\u0438\u0447\u0435\u0441\u043A\u0438\u0435
    \u0441\u0430\u043F\u043E\u0433\u0438. \u0421\u043E\u0437\u0434\u0430\u043D\u044B
    \u0438\u0437 \u0440\u0435\u0434\u043A\u0438\u0445 \u043C\u0430\u0442\u0435\u0440\u0438\u0430\u043B\u043E\u0432
    \u043B\u0443\u0447\u0448\u0438\u043C\u0438 \u043F\u043E\u0440\u0442\u043D\u044B\u043C\u0438
    \u043C\u0438\u0440\u0430.\r"
  ItemIcon: {fileID: 21300000, guid: a3003955efff3474c874b9212b17f922, type: 3}
  equipWeaponType: 5
  itemTyepe: 3
  ItemBuyPrice: 2000
  ItemSellPrice: 1000
  isStacable: 0
  NeededLevel: 20
  NeededSlot: 7
  rarity: 1
  addForce: 0
  addAgility: 0
  addMind: 0
  addPAttack: 0
  addMAttack: 3
  addArmor: 16
  AddSpdAttack: 0
  addMoveSpeed: 2
  addMaxHp: 2
  addMaxMp: 2
