%YAML 1.1
%TAG !u! tag:unity3d.com,2011:
--- !u!114 &11400000
MonoBehaviour:
  m_ObjectHideFlags: 0
  m_CorrespondingSourceObject: {fileID: 0}
  m_PrefabInstance: {fileID: 0}
  m_PrefabAsset: {fileID: 0}
  m_GameObject: {fileID: 0}
  m_Enabled: 1
  m_EditorHideFlags: 0
  m_Script: {fileID: 11500000, guid: 24da9556ebb9bc743904dfdd5b564caa, type: 3}
  m_Name: ChestF_37
  m_EditorClassIdentifier: 
  ItemName: "\u041C\u0435\u0442\u0430\u043B\u043B\u0438\u0447\u0435\u0441\u043A\u0430\u044F
    \u0431\u0440\u043E\u043D\u044F \u0441\u0438\u043B\u044B"
  ItemDiscr: "\u0412\u0435\u043B\u0438\u043A\u0430\u044F \u043C\u0435\u0442\u0430\u043B\u043B\u0438\u0447\u0435\u0441\u043A\u0430\u044F
    \u0431\u0440\u043E\u043D\u044F \u0441 \u0445\u043E\u0440\u043E\u0448\u0435\u0439
    \u0437\u0430\u0449\u0438\u0442\u043E\u0439. \u0421\u0434\u0435\u043B\u0430\u043D\u0430
    \u043B\u0443\u0447\u0448\u0438\u043C\u0438 \u043A\u0443\u0437\u043D\u0435\u0446\u0430\u043C\u0438
    \u043A\u043E\u0440\u043E\u043B\u0435\u0432\u0441\u0442\u0432\u0430."
  ItemIcon: {fileID: 21300000, guid: 1fc50e3eb3112ba42954db07eee3f09a, type: 3}
  equipWeaponType: 6
  itemTyepe: 3
  ItemBuyPrice: 10000
  ItemSellPrice: 5000
  isStacable: 0
  NeededLevel: 60
  NeededSlot: 2
  rarity: 2
  addForce: 0
  addAgility: 0
  addMind: 0
  addPAttack: 10
  addMAttack: 0
  addArmor: 65
  AddSpdAttack: 4
  addMoveSpeed: 3
  addMaxHp: 5
  addMaxMp: 5
