%YAML 1.1
%TAG !u! tag:unity3d.com,2011:
--- !u!114 &11400000
MonoBehaviour:
  m_ObjectHideFlags: 0
  m_CorrespondingSourceObject: {fileID: 0}
  m_PrefabInstance: {fileID: 0}
  m_PrefabAsset: {fileID: 0}
  m_GameObject: {fileID: 0}
  m_Enabled: 1
  m_EditorHideFlags: 0
  m_Script: {fileID: 11500000, guid: 24da9556ebb9bc743904dfdd5b564caa, type: 3}
  m_Name: Chest_09
  m_EditorClassIdentifier: 
  ItemName: "\u0412\u043E\u0438\u043D\u0441\u043A\u0430\u044F \u0440\u043E\u0431\u0430
    \u0441\u0438\u043B\u044B"
  ItemDiscr: "\u0420\u043E\u0431\u0430 \u0438\u0437 \u0445\u043E\u0440\u043E\u0448\u0438\u0445
    \u043C\u0430\u0442\u0435\u0440\u0438\u0430\u043B\u043E\u0432, \u0434\u043E\u0431\u0430\u0432\u043B\u044F\u044E\u0449\u0430\u044F
    \u0436\u0438\u0437\u043D\u0438 \u0438 \u0441\u0438\u043B\u0443 \u0444\u0438\u0437.
    \u0430\u0442\u0430\u043A\u0438.\r"
  ItemIcon: {fileID: 21300000, guid: 7d63205e4d846804b826036bcfc2d6b6, type: 3}
  equipWeaponType: 6
  itemTyepe: 3
  ItemBuyPrice: 350
  ItemSellPrice: 175
  isStacable: 0
  NeededLevel: 5
  NeededSlot: 2
  rarity: 0
  addForce: 0
  addAgility: 0
  addMind: 0
  addPAttack: 2
  addMAttack: 0
  addArmor: 12
  AddSpdAttack: 0
  addMoveSpeed: 0
  addMaxHp: 3
  addMaxMp: 0
