%YAML 1.1
%TAG !u! tag:unity3d.com,2011:
--- !u!114 &11400000
MonoBehaviour:
  m_ObjectHideFlags: 0
  m_CorrespondingSourceObject: {fileID: 0}
  m_PrefabInstance: {fileID: 0}
  m_PrefabAsset: {fileID: 0}
  m_GameObject: {fileID: 0}
  m_Enabled: 1
  m_EditorHideFlags: 0
  m_Script: {fileID: 11500000, guid: 24da9556ebb9bc743904dfdd5b564caa, type: 3}
  m_Name: Chest_17
  m_EditorClassIdentifier: 
  ItemName: "\u041B\u0443\u0447\u0448\u0438\u0439 \u043C\u0430\u0433\u0438\u0447\u0435\u0441\u043A\u0438\u0439
    \u043A\u0438\u0442\u0435\u043B\u044C"
  ItemDiscr: "\u0421\u043E\u0437\u0434\u0430\u043D \u0438\u0437 \u0440\u0435\u0434\u043A\u0438\u0445
    \u043C\u0430\u0442\u0435\u0440\u0438\u0430\u043B\u043E\u0432 \u043B\u0443\u0447\u0448\u0438\u043C\u0438
    \u043F\u043E\u0440\u0442\u043D\u044B\u043C\u0438 \u043C\u0438\u0440\u0430."
  ItemIcon: {fileID: 21300000, guid: d83d4c5c7ca8b924095a35ec04eb1cf1, type: 3}
  equipWeaponType: 6
  itemTyepe: 3
  ItemBuyPrice: 3000
  ItemSellPrice: 1500
  isStacable: 0
  NeededLevel: 20
  NeededSlot: 2
  rarity: 1
  addForce: 0
  addAgility: 0
  addMind: 0
  addPAttack: 0
  addMAttack: 3
  addArmor: 35
  AddSpdAttack: 0
  addMoveSpeed: 1
  addMaxHp: 2
  addMaxMp: 5
