%YAML 1.1
%TAG !u! tag:unity3d.com,2011:
--- !u!114 &11400000
MonoBehaviour:
  m_ObjectHideFlags: 0
  m_CorrespondingSourceObject: {fileID: 0}
  m_PrefabInstance: {fileID: 0}
  m_PrefabAsset: {fileID: 0}
  m_GameObject: {fileID: 0}
  m_Enabled: 1
  m_EditorHideFlags: 0
  m_Script: {fileID: 11500000, guid: 24da9556ebb9bc743904dfdd5b564caa, type: 3}
  m_Name: Gloves_10
  m_EditorClassIdentifier: 
  ItemName: "\u041C\u0430\u0433\u0438\u0447\u0435\u0441\u043A\u0438\u0435 \u043F\u0435\u0440\u0447\u0430\u0442\u043A\u0438
    \u0436\u0438\u0437\u043D\u0438"
  ItemDiscr: "\u041C\u0430\u0433\u0438\u0447\u0435\u0441\u043A\u0438\u0435 \u043F\u0435\u0440\u0447\u0430\u0442\u043A\u0438
    \u0441 \u0445\u043E\u0440\u043E\u0448\u0435\u0439 \u0437\u0430\u0449\u0438\u0442\u043E\u0439.
    \u0421\u0434\u0435\u043B\u0430\u043D\u044B \u0438\u0437 \u0445\u043E\u0440\u043E\u0448\u0438\u0445
    \u043C\u0430\u0442\u0435\u0440\u0438\u0430\u043B\u043E\u0432, \u0443\u0432\u0435\u043B\u0438\u0447\u0438\u0432\u0430\u044E\u0449\u0438\u0435
    \u0441\u043A\u043E\u0440\u043E\u0441\u0442\u044C \u0430\u0442\u0430\u043A\u0438,
    \u043A\u043E\u043B-\u0432\u043E \u0436\u0438\u0437\u043D\u0438 \u0438 \u043C\u0430\u0433\u0438\u0447\u0435\u0441\u043A\u0443\u044E
    \u0430\u0442\u0430\u043A\u0443."
  ItemIcon: {fileID: 21300000, guid: f1aef7ef51ccb6f459182d0e3494421d, type: 3}
  equipWeaponType: 7
  itemTyepe: 3
  ItemBuyPrice: 1800
  ItemSellPrice: 800
  isStacable: 0
  NeededLevel: 20
  NeededSlot: 6
  rarity: 0
  addForce: 0
  addAgility: 0
  addMind: 0
  addPAttack: 0
  addMAttack: 3
  addArmor: 13
  AddSpdAttack: 4
  addMoveSpeed: 0
  addMaxHp: 5
  addMaxMp: 0
