%YAML 1.1
%TAG !u! tag:unity3d.com,2011:
--- !u!114 &11400000
MonoBehaviour:
  m_ObjectHideFlags: 0
  m_CorrespondingSourceObject: {fileID: 0}
  m_PrefabInstance: {fileID: 0}
  m_PrefabAsset: {fileID: 0}
  m_GameObject: {fileID: 0}
  m_Enabled: 1
  m_EditorHideFlags: 0
  m_Script: {fileID: 11500000, guid: 24da9556ebb9bc743904dfdd5b564caa, type: 3}
  m_Name: GlovesF_24
  m_EditorClassIdentifier: 
  ItemName: "\u0428\u0438\u043F\u043E\u0432\u0430\u043D\u043D\u044B\u0435 \u041C\u0435\u0442\u0430\u043B\u043B\u0438\u0447\u0435\u0441\u043A\u0438\u0435
    \u043F\u0435\u0440\u0447\u0430\u0442\u043A\u0438"
  ItemDiscr: "\u041C\u0435\u0442\u0430\u043B\u043B\u0438\u0447\u0435\u0441\u043A\u0438\u0435
    \u043F\u0435\u0440\u0447\u0430\u0442\u043A\u0438, \u0445\u043E\u0440\u043E\u0448\u043E
    \u0437\u0430\u0449\u0438\u0449\u0430\u044E\u0442 \u0438 \u0443\u0441\u0438\u043B\u0438\u0432\u0430\u044E\u0442
    \u0430\u0442\u0430\u043A\u0443 \u0433\u0435\u0440\u043E\u044F. \u0421\u0434\u0435\u043B\u0430\u043D\u044B
    \u0438\u0437 \u043B\u0443\u0447\u0448\u0438\u0445 \u043C\u0430\u0442\u0435\u0440\u0438\u0430\u043B\u043E\u0432
    \u043A\u043E\u0440\u043E\u043B\u0435\u0432\u0441\u0442\u0432\u0430 \u0438 \u043D\u0430\u0434\u0435\u043B\u044F\u044E\u0442
    \u0431\u043E\u043B\u044C\u0448\u0438\u043C \u043A\u043E\u043B-\u0432\u043E\u043C
    \u0436\u0438\u0437\u043D\u0438 \u0438 \u0441\u0438\u043B\u043E\u0439 \u0430\u0442\u0430\u043A\u0438."
  ItemIcon: {fileID: 21300000, guid: cddf78914c047204c82c195d6e41bddc, type: 3}
  equipWeaponType: 7
  itemTyepe: 3
  ItemBuyPrice: 15000
  ItemSellPrice: 7000
  isStacable: 0
  NeededLevel: 70
  NeededSlot: 6
  rarity: 2
  addForce: 0
  addAgility: 0
  addMind: 0
  addPAttack: 8
  addMAttack: 0
  addArmor: 34
  AddSpdAttack: 6
  addMoveSpeed: 2
  addMaxHp: 6
  addMaxMp: 6
