%YAML 1.1
%TAG !u! tag:unity3d.com,2011:
--- !u!114 &11400000
MonoBehaviour:
  m_ObjectHideFlags: 0
  m_CorrespondingSourceObject: {fileID: 0}
  m_PrefabInstance: {fileID: 0}
  m_PrefabAsset: {fileID: 0}
  m_GameObject: {fileID: 0}
  m_Enabled: 1
  m_EditorHideFlags: 0
  m_Script: {fileID: 11500000, guid: 24da9556ebb9bc743904dfdd5b564caa, type: 3}
  m_Name: GlovesF_18
  m_EditorClassIdentifier: 
  ItemName: "\u0412\u043E\u0438\u043D\u0441\u043A\u0438\u0435 \u043F\u0435\u0440\u0447\u0430\u0442\u043A\u0438
    \u0441\u043A\u043E\u0440\u043E\u0441\u0442\u0438"
  ItemDiscr: "\u041F\u0435\u0440\u0447\u0430\u0442\u043A\u0438 \u0432\u043E\u0438\u043D\u043E\u0432
    \u0443\u0441\u0438\u043B\u0438\u0432\u0430\u044E\u0449\u0438\u0435 \u0441\u043A\u043E\u0440\u043E\u0441\u0442\u044C
    \u0430\u0442\u0430\u043A\u0438 \u0438 \u0431\u0435\u0433\u0430.\r"
  ItemIcon: {fileID: 21300000, guid: 4fe1d2e59f0a73a47a10be478fd3a8be, type: 3}
  equipWeaponType: 7
  itemTyepe: 3
  ItemBuyPrice: 2000
  ItemSellPrice: 800
  isStacable: 0
  NeededLevel: 20
  NeededSlot: 6
  rarity: 0
  addForce: 0
  addAgility: 0
  addMind: 0
  addPAttack: 2
  addMAttack: 0
  addArmor: 14
  AddSpdAttack: 4
  addMoveSpeed: 1
  addMaxHp: 1
  addMaxMp: 1
