%YAML 1.1
%TAG !u! tag:unity3d.com,2011:
--- !u!114 &11400000
MonoBehaviour:
  m_ObjectHideFlags: 0
  m_CorrespondingSourceObject: {fileID: 0}
  m_PrefabInstance: {fileID: 0}
  m_PrefabAsset: {fileID: 0}
  m_GameObject: {fileID: 0}
  m_Enabled: 1
  m_EditorHideFlags: 0
  m_Script: {fileID: 11500000, guid: 24da9556ebb9bc743904dfdd5b564caa, type: 3}
  m_Name: HelmF_22
  m_EditorClassIdentifier: 
  ItemName: "\u0412\u043E\u0438\u043D\u0441\u043A\u0438\u0439 \u0448\u043B\u0435\u043C
    \u0441\u0438\u043B\u044B"
  ItemDiscr: "\u0428\u043B\u0435\u043C \u0432\u043E\u0438\u043D\u043E\u0432 \u0443\u0441\u0438\u043B\u0438\u0432\u0430\u044E\u0449\u0438\u0439
    \u0441\u0438\u043B\u0443 \u0430\u0442\u0430\u043A\u0438 \u0438 \u043A\u043E\u043B-\u0432\u043E
    \u0436\u0438\u0437\u043D\u0438 \u0433\u0435\u0440\u043E\u044F."
  ItemIcon: {fileID: 21300000, guid: 617d9dc065286d043bf7ba852b8d7e46, type: 3}
  equipWeaponType: 8
  itemTyepe: 3
  ItemBuyPrice: 2400
  ItemSellPrice: 1000
  isStacable: 0
  NeededLevel: 20
  NeededSlot: 0
  rarity: 0
  addForce: 0
  addAgility: 0
  addMind: 0
  addPAttack: 4
  addMAttack: 0
  addArmor: 19
  AddSpdAttack: 0
  addMoveSpeed: 0
  addMaxHp: 4
  addMaxMp: 0
