%YAML 1.1
%TAG !u! tag:unity3d.com,2011:
--- !u!114 &11400000
MonoBehaviour:
  m_ObjectHideFlags: 0
  m_CorrespondingSourceObject: {fileID: 0}
  m_PrefabInstance: {fileID: 0}
  m_PrefabAsset: {fileID: 0}
  m_GameObject: {fileID: 0}
  m_Enabled: 1
  m_EditorHideFlags: 0
  m_Script: {fileID: 11500000, guid: 24da9556ebb9bc743904dfdd5b564caa, type: 3}
  m_Name: Helm_11
  m_EditorClassIdentifier: 
  ItemName: "\u041C\u0430\u0433\u0438\u0447\u0435\u0441\u043A\u0430\u044F \u043C\u0430\u0441\u043A\u0430
    \u0436\u0438\u0437\u043D\u0438"
  ItemDiscr: "\u041C\u0430\u0433\u0438\u0447\u0435\u0441\u043A\u0430\u044F \u043C\u0430\u0441\u043A\u0430
    \u0441 \u0445\u043E\u0440\u043E\u0448\u0435\u0439 \u0437\u0430\u0449\u0438\u0442\u043E\u0439.
    \u0421\u0434\u0435\u043B\u0430\u043D\u0430 \u0438\u0437 \u0445\u043E\u0440\u043E\u0448\u0438\u0445
    \u043C\u0430\u0442\u0435\u0440\u0438\u0430\u043B\u043E\u0432, \u0434\u043E\u0431\u0430\u0432\u043B\u044F\u044E\u0449\u0430\u044F
    \u043A\u043E\u043B-\u0432\u043E \u0436\u0438\u0437\u043D\u0438 \u0438 \u043C\u0430\u0433\u0438\u0447\u0435\u0441\u043A\u043E\u0439
    \u0430\u0442\u0430\u043A\u0438."
  ItemIcon: {fileID: 21300000, guid: 4809865b5cce1d140870625005de7ca4, type: 3}
  equipWeaponType: 8
  itemTyepe: 3
  ItemBuyPrice: 2300
  ItemSellPrice: 1000
  isStacable: 0
  NeededLevel: 20
  NeededSlot: 0
  rarity: 1
  addForce: 0
  addAgility: 0
  addMind: 0
  addPAttack: 0
  addMAttack: 2
  addArmor: 15
  AddSpdAttack: 0
  addMoveSpeed: 0
  addMaxHp: 5
  addMaxMp: 2
