%YAML 1.1
%TAG !u! tag:unity3d.com,2011:
--- !u!114 &11400000
MonoBehaviour:
  m_ObjectHideFlags: 0
  m_CorrespondingSourceObject: {fileID: 0}
  m_PrefabInstance: {fileID: 0}
  m_PrefabAsset: {fileID: 0}
  m_GameObject: {fileID: 0}
  m_Enabled: 1
  m_EditorHideFlags: 0
  m_Script: {fileID: 11500000, guid: 24da9556ebb9bc743904dfdd5b564caa, type: 3}
  m_Name: Helm_21
  m_EditorClassIdentifier: 
  ItemName: "\u041B\u0435\u0433\u0435\u043D\u0434\u0430\u0440\u043D\u0430\u044F \u043C\u0430\u0441\u043A\u0430
    \u0432\u0435\u0442\u0440\u0430"
  ItemDiscr: "\u0412\u0435\u043B\u0438\u043A\u0430\u044F \u043C\u0430\u0433\u0438\u0447\u0435\u0441\u043A\u0430\u044F
    \u043C\u0430\u0441\u043A\u0430, \u0441\u0434\u0435\u043B\u0430\u043D\u043D\u0430\u044F
    \u0438\u0437 \u043B\u0443\u0447\u0448\u0438\u0445 \u043C\u0430\u0442\u0435\u0440\u0438\u0430\u043B\u043E\u0432
    \u043A\u043E\u0440\u043E\u043B\u0435\u0432\u0441\u0442\u0432\u0430 \u0438 \u0437\u0430\u043A\u043E\u043B\u0434\u043E\u0432\u0430\u043D\u043D\u0430\u044F
    \u0432\u0435\u043B\u0438\u043A\u0438\u043C \u043C\u0430\u0433\u043E\u043C.\r"
  ItemIcon: {fileID: 21300000, guid: 269006c253b76ad46a606fe49de1487f, type: 3}
  equipWeaponType: 8
  itemTyepe: 3
  ItemBuyPrice: 16000
  ItemSellPrice: 8000
  isStacable: 0
  NeededLevel: 70
  NeededSlot: 0
  rarity: 3
  addForce: 0
  addAgility: 0
  addMind: 0
  addPAttack: 5
  addMAttack: 12
  addArmor: 28
  AddSpdAttack: 4
  addMoveSpeed: 4
  addMaxHp: 6
  addMaxMp: 8
