%YAML 1.1
%TAG !u! tag:unity3d.com,2011:
--- !u!114 &11400000
MonoBehaviour:
  m_ObjectHideFlags: 0
  m_CorrespondingSourceObject: {fileID: 0}
  m_PrefabInstance: {fileID: 0}
  m_PrefabAsset: {fileID: 0}
  m_GameObject: {fileID: 0}
  m_Enabled: 1
  m_EditorHideFlags: 0
  m_Script: {fileID: 11500000, guid: 24da9556ebb9bc743904dfdd5b564caa, type: 3}
  m_Name: HelmF_34
  m_EditorClassIdentifier: 
  ItemName: "\u041C\u0435\u0442\u0430\u043B\u043B\u0438\u0447\u0435\u0441\u043A\u0438\u0439
    \u0448\u043B\u0435\u043C \u0432\u0435\u0442\u0440\u0430"
  ItemDiscr: "\u041C\u0435\u0442\u0430\u043B\u043B\u0438\u0447\u0435\u0441\u043A\u0438\u0439
    \u0448\u043B\u0435\u043C, \u0445\u043E\u0440\u043E\u0448\u043E \u0437\u0430\u0449\u0438\u0449\u0430\u0435\u0442
    \u0438 \u0443\u0441\u043A\u043E\u0440\u044F\u0435\u0442 \u0433\u0435\u0440\u043E\u044F.
    \u0421\u0434\u0435\u043B\u0430\u043D \u0438\u0437 \u043B\u0443\u0447\u0448\u0438\u0445
    \u043C\u0430\u0442\u0435\u0440\u0438\u0430\u043B\u043E\u0432 \u043A\u043E\u0440\u043E\u043B\u0435\u0432\u0441\u0442\u0432\u0430
    \u0438 \u043D\u0430\u0434\u0435\u043B\u044F\u0435\u0442 \u0432\u044B\u0441\u043E\u043A\u043E\u0439
    \u0441\u043A\u043E\u0440\u043E\u0441\u0442\u044C\u044E."
  ItemIcon: {fileID: 21300000, guid: fc45d206eee8ac248a4324ab7c527086, type: 3}
  equipWeaponType: 8
  itemTyepe: 3
  ItemBuyPrice: 15000
  ItemSellPrice: 7000
  isStacable: 0
  NeededLevel: 70
  NeededSlot: 0
  rarity: 2
  addForce: 0
  addAgility: 0
  addMind: 0
  addPAttack: 6
  addMAttack: 0
  addArmor: 32
  AddSpdAttack: 9
  addMoveSpeed: 3
  addMaxHp: 6
  addMaxMp: 5
