%YAML 1.1
%TAG !u! tag:unity3d.com,2011:
--- !u!114 &11400000
MonoBehaviour:
  m_ObjectHideFlags: 0
  m_CorrespondingSourceObject: {fileID: 0}
  m_PrefabInstance: {fileID: 0}
  m_PrefabAsset: {fileID: 0}
  m_GameObject: {fileID: 0}
  m_Enabled: 1
  m_EditorHideFlags: 0
  m_Script: {fileID: 11500000, guid: 24da9556ebb9bc743904dfdd5b564caa, type: 3}
  m_Name: Helm_07
  m_EditorClassIdentifier: 
  ItemName: "\u0422\u044F\u0436\u0435\u043B\u044B\u0439 \u043C\u0430\u0433\u0438\u0447\u0435\u0441\u043A\u0438\u0439
    \u0448\u043B\u0435\u043C"
  ItemDiscr: "\u041C\u0430\u0433\u0438\u0447\u0435\u0441\u043A\u0438\u0439 \u0448\u043B\u0435\u043C
    \u0436\u0438\u0437\u043D\u0438 \u0443\u0441\u0438\u043B\u0435\u043D\u043D\u044B\u0439
    \u0442\u0432\u0435\u0440\u0434\u044B\u043C \u043C\u0435\u0442\u0430\u043B\u043B\u043E\u043C
    \u0434\u043B\u044F \u043B\u0443\u0447\u0448\u0435\u0439 \u0437\u0430\u0449\u0438\u0442\u044B."
  ItemIcon: {fileID: 21300000, guid: b08a3fc7c7d90cf4aab739b648f6d24a, type: 3}
  equipWeaponType: 8
  itemTyepe: 3
  ItemBuyPrice: 800
  ItemSellPrice: 300
  isStacable: 0
  NeededLevel: 10
  NeededSlot: 0
  rarity: 1
  addForce: 0
  addAgility: 0
  addMind: 0
  addPAttack: 0
  addMAttack: 2
  addArmor: 12
  AddSpdAttack: 0
  addMoveSpeed: -2
  addMaxHp: 2
  addMaxMp: 0
