%YAML 1.1
%TAG !u! tag:unity3d.com,2011:
--- !u!114 &11400000
MonoBehaviour:
  m_ObjectHideFlags: 0
  m_CorrespondingSourceObject: {fileID: 0}
  m_PrefabInstance: {fileID: 0}
  m_PrefabAsset: {fileID: 0}
  m_GameObject: {fileID: 0}
  m_Enabled: 1
  m_EditorHideFlags: 0
  m_Script: {fileID: 11500000, guid: 24da9556ebb9bc743904dfdd5b564caa, type: 3}
  m_Name: necklace_19
  m_EditorClassIdentifier: 
  ItemName: "\u0417\u043E\u043B\u043E\u0442\u043E\u0439 \u0430\u043C\u0443\u043B\u0435\u0442
    \u0441 \u0433\u0438\u043F\u0435\u0440\u0441\u0442\u0435\u043D\u043E\u043C"
  ItemDiscr: "\u041A\u0430\u0447\u0435\u0441\u0442\u0432\u0435\u043D\u043D\u044B\u0439
    \u0430\u043C\u0443\u043B\u0435\u0442 \u0441 \u0433\u0438\u043F\u0435\u0440\u0441\u0442\u0435\u043D\u043E\u043C,
    \u0434\u0430\u044E\u0449\u0438\u0439 \u043E\u0442\u043B\u0438\u0447\u043D\u0443\u044E
    \u0437\u0430\u0449\u0438\u0442\u0443"
  ItemIcon: {fileID: 21300000, guid: 14455b545baff7948b676664a4e919ff, type: 3}
  equipWeaponType: 9
  itemTyepe: 3
  ItemBuyPrice: 3500
  ItemSellPrice: 1500
  isStacable: 0
  NeededLevel: 40
  NeededSlot: 4
  rarity: 1
  addForce: 0
  addAgility: 0
  addMind: 0
  addPAttack: 1
  addMAttack: 1
  addArmor: 2
  AddSpdAttack: 0
  addMoveSpeed: 0
  addMaxHp: 2
  addMaxMp: 2
