%YAML 1.1
%TAG !u! tag:unity3d.com,2011:
--- !u!114 &11400000
MonoBehaviour:
  m_ObjectHideFlags: 0
  m_CorrespondingSourceObject: {fileID: 0}
  m_PrefabInstance: {fileID: 0}
  m_PrefabAsset: {fileID: 0}
  m_GameObject: {fileID: 0}
  m_Enabled: 1
  m_EditorHideFlags: 0
  m_Script: {fileID: 11500000, guid: 24da9556ebb9bc743904dfdd5b564caa, type: 3}
  m_Name: necklace_32
  m_EditorClassIdentifier: 
  ItemName: "\u041B\u0435\u0433\u0435\u043D\u0434\u0430\u0440\u043D\u044B\u0439 \u0430\u043C\u0443\u043B\u0435\u0442
    \u0441\u043A\u043E\u0440\u043E\u0441\u0442\u0438"
  ItemDiscr: "\u0412\u0435\u043B\u0438\u043A\u0438\u0439 \u0430\u043C\u0443\u043B\u0435\u0442
    \u0441\u043A\u043E\u0440\u043E\u0441\u0442\u0438 \u0441 \u0438\u0437\u0443\u043C\u0440\u0443\u0434\u043E\u043C.
    \u0417\u0430\u043A\u043E\u043B\u0434\u043E\u0432\u0430\u043D\u043D\u044B\u0439
    \u043D\u0430 \u0441\u043A\u043E\u0440\u043E\u0441\u0442\u044C \u0431\u0435\u0433\u0430
    \u0438 \u0430\u0442\u0430\u043A\u0438."
  ItemIcon: {fileID: 21300000, guid: f884bb0cdd924c84ba2ae7fc4ad26e50, type: 3}
  equipWeaponType: 9
  itemTyepe: 3
  ItemBuyPrice: 15000
  ItemSellPrice: 6000
  isStacable: 0
  NeededLevel: 70
  NeededSlot: 4
  rarity: 3
  addForce: 0
  addAgility: 0
  addMind: 0
  addPAttack: 3
  addMAttack: 3
  addArmor: 4
  AddSpdAttack: 5
  addMoveSpeed: 5
  addMaxHp: 3
  addMaxMp: 4
