%YAML 1.1
%TAG !u! tag:unity3d.com,2011:
--- !u!114 &11400000
MonoBehaviour:
  m_ObjectHideFlags: 0
  m_CorrespondingSourceObject: {fileID: 0}
  m_PrefabInstance: {fileID: 0}
  m_PrefabAsset: {fileID: 0}
  m_GameObject: {fileID: 0}
  m_Enabled: 1
  m_EditorHideFlags: 0
  m_Script: {fileID: 11500000, guid: 24da9556ebb9bc743904dfdd5b564caa, type: 3}
  m_Name: necklace_18
  m_EditorClassIdentifier: 
  ItemName: "\u0422\u043E\u043B\u0441\u0442\u0430\u044F \u0437\u043E\u043B\u043E\u0442\u0430\u044F
    \u0446\u0435\u043F\u043E\u0447\u043A\u0430"
  ItemDiscr: "\u041F\u0440\u043E\u0441\u0442\u0430\u044F, \u0442\u043E\u043B\u0441\u0442\u0430\u044F
    \u0437\u043E\u043B\u043E\u0442\u0430\u044F \u0446\u0435\u043F\u043E\u0447\u043A\u0430\r."
  ItemIcon: {fileID: 21300000, guid: e52733adcaa00134cac9097ee216cfbd, type: 3}
  equipWeaponType: 9
  itemTyepe: 3
  ItemBuyPrice: 3500
  ItemSellPrice: 1500
  isStacable: 0
  NeededLevel: 40
  NeededSlot: 4
  rarity: 1
  addForce: 0
  addAgility: 0
  addMind: 0
  addPAttack: 0
  addMAttack: 0
  addArmor: 0
  AddSpdAttack: 0
  addMoveSpeed: 0
  addMaxHp: 5
  addMaxMp: 5
