%YAML 1.1
%TAG !u! tag:unity3d.com,2011:
--- !u!114 &11400000
MonoBehaviour:
  m_ObjectHideFlags: 0
  m_CorrespondingSourceObject: {fileID: 0}
  m_PrefabInstance: {fileID: 0}
  m_PrefabAsset: {fileID: 0}
  m_GameObject: {fileID: 0}
  m_Enabled: 1
  m_EditorHideFlags: 0
  m_Script: {fileID: 11500000, guid: 24da9556ebb9bc743904dfdd5b564caa, type: 3}
  m_Name: necklace_09
  m_EditorClassIdentifier: 
  ItemName: "\u041F\u0440\u043E\u0441\u0442\u0430\u044F \u0442\u043E\u043D\u043A\u0430\u044F
    \u0446\u0435\u043F\u043E\u0447\u043A\u0430"
  ItemDiscr: "\u041E\u0431\u044B\u0447\u043D\u0430\u044F \u0442\u043E\u043D\u043A\u0430\u044F
    \u043C\u0435\u0442\u0430\u043B\u043B\u0438\u0447\u0435\u0441\u043A\u0430\u044F
    \u0446\u0435\u043F\u043E\u0447\u043A\u0430"
  ItemIcon: {fileID: 21300000, guid: f9b2782b79f0935448cf3a728b1bf607, type: 3}
  equipWeaponType: 9
  itemTyepe: 3
  ItemBuyPrice: 220
  ItemSellPrice: 100
  isStacable: 0
  NeededLevel: 0
  NeededSlot: 4
  rarity: 0
  addForce: 0
  addAgility: 0
  addMind: 0
  addPAttack: 0
  addMAttack: 0
  addArmor: 0
  AddSpdAttack: 0
  addMoveSpeed: 0
  addMaxHp: 0
  addMaxMp: 0
