%YAML 1.1
%TAG !u! tag:unity3d.com,2011:
--- !u!114 &11400000
MonoBehaviour:
  m_ObjectHideFlags: 0
  m_CorrespondingSourceObject: {fileID: 0}
  m_PrefabInstance: {fileID: 0}
  m_PrefabAsset: {fileID: 0}
  m_GameObject: {fileID: 0}
  m_Enabled: 1
  m_EditorHideFlags: 0
  m_Script: {fileID: 11500000, guid: 24da9556ebb9bc743904dfdd5b564caa, type: 3}
  m_Name: necklace_13
  m_EditorClassIdentifier: 
  ItemName: "\u0421\u0435\u0440\u0435\u0431\u0440\u044F\u043D\u044B\u0439 \u0430\u043C\u0443\u043B\u0435\u0442
    \u0441 \u044F\u043D\u0442\u0430\u0440\u0435\u043C"
  ItemDiscr: "\u0421\u0435\u0440\u0435\u0431\u0440\u044F\u043D\u044B\u0439 \u0430\u043C\u0443\u043B\u0435\u0442
    \u0441 \u044F\u043D\u0442\u0430\u0440\u0435\u043C, \u0443\u0432\u0435\u043B\u0438\u0447\u0438\u0432\u0430\u0435\u0442
    \u043A\u043E\u043B-\u0432\u043E \u0436\u0438\u0437\u043D\u0438 \u0438 \u043C\u0430\u043D\u044B,
    \u0430 \u0442\u0430\u043A\u0436\u0435 \u0434\u0430\u0435\u0442 \u043D\u0435\u043C\u043D\u043E\u0433\u043E
    \u0437\u0430\u0449\u0438\u0442\u044B"
  ItemIcon: {fileID: 21300000, guid: 9fc597b2d060a2b44b8e4a840a4bccdd, type: 3}
  equipWeaponType: 9
  itemTyepe: 3
  ItemBuyPrice: 500
  ItemSellPrice: 170
  isStacable: 0
  NeededLevel: 10
  NeededSlot: 4
  rarity: 1
  addForce: 0
  addAgility: 0
  addMind: 0
  addPAttack: 0
  addMAttack: 0
  addArmor: 1
  AddSpdAttack: 0
  addMoveSpeed: 0
  addMaxHp: 4
  addMaxMp: 3
