%YAML 1.1
%TAG !u! tag:unity3d.com,2011:
--- !u!114 &11400000
MonoBehaviour:
  m_ObjectHideFlags: 0
  m_CorrespondingSourceObject: {fileID: 0}
  m_PrefabInstance: {fileID: 0}
  m_PrefabAsset: {fileID: 0}
  m_GameObject: {fileID: 0}
  m_Enabled: 1
  m_EditorHideFlags: 0
  m_Script: {fileID: 11500000, guid: 24da9556ebb9bc743904dfdd5b564caa, type: 3}
  m_Name: necklace_34
  m_EditorClassIdentifier: 
  ItemName: "\u0421\u0435\u0440\u0435\u0431\u0440\u044F\u043D\u044B\u0439 \u0430\u043C\u0443\u043B\u0435\u0442
    \u0441 \u0443\u0437\u043E\u0440\u043E\u043C"
  ItemDiscr: "\u0421\u0435\u0440\u0435\u0431\u0440\u044F\u043D\u044B\u0439 \u043A\u043E\u0440\u043E\u043B\u0435\u0432\u0441\u043A\u0438\u0439
    \u0430\u043C\u0443\u043B\u0435\u0442 \u0441 \u043C\u0430\u0433\u0438\u0447\u0435\u0441\u043A\u0438\u043C
    \u0443\u0437\u043E\u0440\u043E\u043C, \u0445\u043E\u0440\u043E\u0448\u043E \u0437\u0430\u0449\u0438\u0449\u0430\u0435\u0442
    \u0438 \u0443\u0441\u043A\u043E\u0440\u044F\u0435\u0442 \u0433\u0435\u0440\u043E\u044F."
  ItemIcon: {fileID: 21300000, guid: a72f0a7dbfa9f704cb5d978262555127, type: 3}
  equipWeaponType: 9
  itemTyepe: 3
  ItemBuyPrice: 15000
  ItemSellPrice: 6800
  isStacable: 0
  NeededLevel: 70
  NeededSlot: 4
  rarity: 3
  addForce: 0
  addAgility: 0
  addMind: 0
  addPAttack: 4
  addMAttack: 4
  addArmor: 5
  AddSpdAttack: 4
  addMoveSpeed: 4
  addMaxHp: 5
  addMaxMp: 6
