%YAML 1.1
%TAG !u! tag:unity3d.com,2011:
--- !u!114 &11400000
MonoBehaviour:
  m_ObjectHideFlags: 0
  m_CorrespondingSourceObject: {fileID: 0}
  m_PrefabInstance: {fileID: 0}
  m_PrefabAsset: {fileID: 0}
  m_GameObject: {fileID: 0}
  m_Enabled: 1
  m_EditorHideFlags: 0
  m_Script: {fileID: 11500000, guid: 24da9556ebb9bc743904dfdd5b564caa, type: 3}
  m_Name: Ring_18
  m_EditorClassIdentifier: 
  ItemName: "\u041A\u043E\u043B\u044C\u0446\u043E \u043C\u0443\u0434\u0440\u0435\u0446\u0430
    \u0441 \u0430\u0433\u0430\u0442\u043E\u043C"
  ItemDiscr: "\u041A\u043E\u043B\u044C\u0446\u043E \u0434\u0440\u0435\u0432\u043D\u0435\u0433\u043E
    \u0441\u0432\u0435\u0442\u043B\u043E\u0433\u043E \u043C\u0443\u0434\u0440\u0435\u0446\u0430
    \u0441 \u0431\u0435\u043B\u044B\u043C \u0430\u0433\u0430\u0442\u043E\u043C."
  ItemIcon: {fileID: 21300000, guid: 3c0bdf481fedf734fb49531bea4af0c6, type: 3}
  equipWeaponType: 10
  itemTyepe: 3
  ItemBuyPrice: 8000
  ItemSellPrice: 3500
  isStacable: 0
  NeededLevel: 60
  NeededSlot: 3
  rarity: 1
  addForce: 0
  addAgility: 0
  addMind: 0
  addPAttack: 0
  addMAttack: 5
  addArmor: 2
  AddSpdAttack: 1
  addMoveSpeed: 0
  addMaxHp: 4
  addMaxMp: 7
