%YAML 1.1
%TAG !u! tag:unity3d.com,2011:
--- !u!114 &11400000
MonoBehaviour:
  m_ObjectHideFlags: 0
  m_CorrespondingSourceObject: {fileID: 0}
  m_PrefabInstance: {fileID: 0}
  m_PrefabAsset: {fileID: 0}
  m_GameObject: {fileID: 0}
  m_Enabled: 1
  m_EditorHideFlags: 0
  m_Script: {fileID: 11500000, guid: 24da9556ebb9bc743904dfdd5b564caa, type: 3}
  m_Name: Ring_19
  m_EditorClassIdentifier: 
  ItemName: "\u041C\u0430\u0433\u0438\u0447\u0435\u0441\u043A\u043E\u0435 \u043A\u043E\u043B\u044C\u0446\u043E
    \u0432\u0435\u0442\u0440\u0430"
  ItemDiscr: "\u0412\u0435\u043B\u0438\u043A\u043E\u0435 \u043C\u0430\u0433\u0438\u0447\u0435\u0441\u043A\u043E\u0435
    \u043A\u043E\u043B\u044C\u0446\u043E \u0432\u0435\u0442\u0440\u0430 \u0441 \u0445\u043E\u0440\u043E\u0448\u0435\u0439
    \u0437\u0430\u0449\u0438\u0442\u043E\u0439. \u0421\u0434\u0435\u043B\u0430\u043D\u043E
    \u0438\u0437 \u0432\u043E\u043B\u0448\u0435\u0431\u043D\u044B\u0445 \u043C\u0430\u0442\u0435\u0440\u0438\u0430\u043B\u043E\u0432
    \u043A\u043E\u0440\u043E\u043B\u0435\u0432\u0441\u0442\u0432\u0430 \u0438 \u0437\u0430\u043A\u043E\u043B\u0434\u043E\u0432\u0430\u043D\u043E
    \u043C\u0430\u0433\u0438\u0435\u0439 \u0432\u0435\u0442\u0440\u0430 \u043D\u0430
    \u0432\u044B\u0441\u043E\u043A\u0443\u044E \u0441\u043A\u043E\u0440\u043E\u0441\u0442\u044C
    \u0430\u0442\u0430\u043A\u0438.\r\n"
  ItemIcon: {fileID: 21300000, guid: b724f790dd76ee74284653e611a0a427, type: 3}
  equipWeaponType: 10
  itemTyepe: 3
  ItemBuyPrice: 8000
  ItemSellPrice: 3500
  isStacable: 0
  NeededLevel: 60
  NeededSlot: 3
  rarity: 1
  addForce: 0
  addAgility: 0
  addMind: 0
  addPAttack: 3
  addMAttack: 3
  addArmor: 2
  AddSpdAttack: 2
  addMoveSpeed: 3
  addMaxHp: 3
  addMaxMp: 4
