%YAML 1.1
%TAG !u! tag:unity3d.com,2011:
--- !u!114 &11400000
MonoBehaviour:
  m_ObjectHideFlags: 0
  m_CorrespondingSourceObject: {fileID: 0}
  m_PrefabInstance: {fileID: 0}
  m_PrefabAsset: {fileID: 0}
  m_GameObject: {fileID: 0}
  m_Enabled: 1
  m_EditorHideFlags: 0
  m_Script: {fileID: 11500000, guid: 24da9556ebb9bc743904dfdd5b564caa, type: 3}
  m_Name: Ring_14
  m_EditorClassIdentifier: 
  ItemName: "\u0417\u043E\u043B\u043E\u0442\u043E\u0435 \u043A\u043E\u043B\u044C\u0446\u043E
    \u043C\u0430\u043D\u044B"
  ItemDiscr: "\u0422\u043E\u043B\u0441\u0442\u043E\u0435 \u0437\u043E\u043B\u043E\u0442\u043E\u0435
    \u043A\u043E\u043B\u044C\u0446\u043E \u0441 \u043C\u0430\u0433\u0438\u0447\u0435\u0441\u043A\u0438\u043C
    \u0441\u0438\u043C\u0432\u043E\u043B\u043E\u043C, \u0447\u0442\u043E \u0443\u0432\u0435\u043B\u0438\u0447\u0438\u0432\u0430\u0435\u0442
    \u043A\u043E\u043B-\u0432\u043E \u043C\u0430\u043D\u044B \u0438 \u0437\u0430\u0449\u0438\u0442\u0443."
  ItemIcon: {fileID: 21300000, guid: d0295dbf9ac2e2342ad8a08ec4ae1cb5, type: 3}
  equipWeaponType: 10
  itemTyepe: 3
  ItemBuyPrice: 4400
  ItemSellPrice: 2200
  isStacable: 0
  NeededLevel: 45
  NeededSlot: 3
  rarity: 2
  addForce: 0
  addAgility: 0
  addMind: 0
  addPAttack: 0
  addMAttack: 1
  addArmor: 3
  AddSpdAttack: 0
  addMoveSpeed: 0
  addMaxHp: 4
  addMaxMp: 9
