%YAML 1.1
%TAG !u! tag:unity3d.com,2011:
--- !u!114 &11400000
MonoBehaviour:
  m_ObjectHideFlags: 0
  m_CorrespondingSourceObject: {fileID: 0}
  m_PrefabInstance: {fileID: 0}
  m_PrefabAsset: {fileID: 0}
  m_GameObject: {fileID: 0}
  m_Enabled: 1
  m_EditorHideFlags: 0
  m_Script: {fileID: 11500000, guid: 24da9556ebb9bc743904dfdd5b564caa, type: 3}
  m_Name: shield_7
  m_EditorClassIdentifier: 
  ItemName: "\u0411\u043E\u043B\u044C\u0448\u043E\u0439 \u043C\u0435\u0442\u0430\u043B\u043B\u0438\u0447\u0435\u0441\u043A\u0438\u0439
    \u0449\u0438\u0442 \u0441\u043A\u043E\u0440\u043E\u0441\u0442\u0438"
  ItemDiscr: "\u0411\u043E\u043B\u044C\u0448\u043E\u0439 \u043C\u0435\u0442\u0430\u043B\u043B\u0438\u0447\u0435\u0441\u043A\u0438\u0439
    \u0449\u0438\u0442 \u0441\u043A\u043E\u0440\u043E\u0441\u0442\u0438."
  ItemIcon: {fileID: 21300000, guid: 3b1251608226a2f4f95b19d5385ab3cc, type: 3}
  equipWeaponType: 11
  itemTyepe: 3
  ItemBuyPrice: 3500
  ItemSellPrice: 1700
  isStacable: 0
  NeededLevel: 40
  NeededSlot: 5
  rarity: 1
  addForce: 0
  addAgility: 0
  addMind: 0
  addPAttack: 2
  addMAttack: 0
  addArmor: 22
  AddSpdAttack: 1
  addMoveSpeed: 0
  addMaxHp: 4
  addMaxMp: 4
