%YAML 1.1
%TAG !u! tag:unity3d.com,2011:
--- !u!114 &11400000
MonoBehaviour:
  m_ObjectHideFlags: 0
  m_CorrespondingSourceObject: {fileID: 0}
  m_PrefabInstance: {fileID: 0}
  m_PrefabAsset: {fileID: 0}
  m_GameObject: {fileID: 0}
  m_Enabled: 1
  m_EditorHideFlags: 0
  m_Script: {fileID: 11500000, guid: 24da9556ebb9bc743904dfdd5b564caa, type: 3}
  m_Name: shield_18
  m_EditorClassIdentifier: 
  ItemName: "\u0411\u043E\u043B\u044C\u0448\u043E\u0439 \u0440\u044B\u0446\u0430\u0440\u0441\u043A\u0438\u0439
    \u0449\u0438\u0442"
  ItemDiscr: "\u0411\u043E\u043B\u044C\u0448\u043E\u0439 \u0440\u044B\u0446\u0430\u0440\u0441\u043A\u0438\u0439
    \u0449\u0438\u0442 c  \u043E\u0433\u0440\u043E\u043C\u043D\u044B\u043C\u0438 \u0448\u0438\u043F\u0430\u043C\u0438
    \u0438 \u043B\u0443\u0447\u0448\u0435\u0439 \u0437\u0430\u0449\u0438\u0442\u043E\u0439.
    \u041D\u0430\u0434\u0435\u043B\u044F\u0435\u0442 \u0432\u044B\u0441\u043E\u043A\u043E\u0439
    \u0441\u043A\u043E\u0440\u043E\u0441\u0442\u044C\u044E \u0438 \u0441\u0438\u043B\u043E\u0439
    \u0430\u0442\u0430\u043A\u0438, \u043D\u043E \u0437\u0430\u043C\u0435\u0434\u043B\u044F\u0435\u0442
    \u0433\u0435\u0440\u043E\u044F."
  ItemIcon: {fileID: 21300000, guid: fa3564d85fb7f0b4889eb66bbfbdbd38, type: 3}
  equipWeaponType: 11
  itemTyepe: 3
  ItemBuyPrice: 14000
  ItemSellPrice: 7000
  isStacable: 0
  NeededLevel: 70
  NeededSlot: 5
  rarity: 3
  addForce: 0
  addAgility: 0
  addMind: 0
  addPAttack: 7
  addMAttack: 2
  addArmor: 32
  AddSpdAttack: -2
  addMoveSpeed: -2
  addMaxHp: 8
  addMaxMp: 12
