%YAML 1.1
%TAG !u! tag:unity3d.com,2011:
--- !u!114 &11400000
MonoBehaviour:
  m_ObjectHideFlags: 0
  m_CorrespondingSourceObject: {fileID: 0}
  m_PrefabInstance: {fileID: 0}
  m_PrefabAsset: {fileID: 0}
  m_GameObject: {fileID: 0}
  m_Enabled: 1
  m_EditorHideFlags: 0
  m_Script: {fileID: 11500000, guid: 24da9556ebb9bc743904dfdd5b564caa, type: 3}
  m_Name: shield_16
  m_EditorClassIdentifier: 
  ItemName: "\u041C\u0430\u0433\u0438\u0447\u0435\u0441\u043A\u0438\u0439 \u0449\u0438\u0442
    \u0441\u043A\u043E\u0440\u043E\u0441\u0442\u0438"
  ItemDiscr: "\u041C\u0430\u0433\u0438\u0447\u0435\u0441\u043A\u0438\u0439 \u0449\u0438\u0442
    \u0441 \u043B\u0438\u0446\u043E\u043C \u043C\u0435\u0434\u0443\u0437\u044B \u0433\u043E\u0440\u0433\u043E\u043D\u044B.
    \u0417\u0430\u043A\u043E\u043B\u0434\u043E\u0432\u0430\u043D\u043D\u044B\u0439
    \u043D\u0430 \u0441\u043A\u043E\u0440\u043E\u0441\u0442\u044C \u0431\u0435\u0433\u0430,
    \u0430\u0442\u0430\u043A\u0438 \u0438 \u0445\u043E\u0440\u043E\u0448\u0443\u044E
    \u0437\u0430\u0449\u0438\u0442\u0443.\r"
  ItemIcon: {fileID: 21300000, guid: c5b81879d4a3a5140be3a75f6dbb3ffe, type: 3}
  equipWeaponType: 11
  itemTyepe: 3
  ItemBuyPrice: 8000
  ItemSellPrice: 3500
  isStacable: 0
  NeededLevel: 62
  NeededSlot: 5
  rarity: 2
  addForce: 0
  addAgility: 0
  addMind: 0
  addPAttack: 2
  addMAttack: 2
  addArmor: 26
  AddSpdAttack: 4
  addMoveSpeed: 4
  addMaxHp: 3
  addMaxMp: 3
