%YAML 1.1
%TAG !u! tag:unity3d.com,2011:
--- !u!114 &11400000
MonoBehaviour:
  m_ObjectHideFlags: 0
  m_CorrespondingSourceObject: {fileID: 0}
  m_PrefabInstance: {fileID: 0}
  m_PrefabAsset: {fileID: 0}
  m_GameObject: {fileID: 0}
  m_Enabled: 1
  m_EditorHideFlags: 0
  m_Script: {fileID: 11500000, guid: 13587fa391005cf489911c1491d9dc7c, type: 3}
  m_Name: FireArmor
  m_EditorClassIdentifier: 
  _character: {fileID: 11400000, guid: 7df9f24ca97dc3d4e936b8dddd7f2ee3, type: 2}
  SkillName: "\u041E\u0433\u043D\u0435\u043D\u043D\u0430\u044F \u0431\u0440\u043E\u043D\u044F"
  SkillDisc: "\u041E\u0433\u043D\u0435\u043D\u043D\u0430\u044F \u0431\u0440\u043E\u043D\u044F
    \u043D\u0430\u043D\u043E\u0441\u0438\u0442 \u0432\u0441\u0435\u043C \u0432\u0440\u0430\u0433\u0430\u043C
    \u0440\u044F\u0434\u043E\u043C \u0441 \u043D\u0438\u043C \u043D\u0435\u0431\u043E\u043B\u044C\u0448\u043E\u0439
    \u0443\u0440\u043E\u043D\r"
  SkillIcon: {fileID: 21300000, guid: 37a8a8707304d994e93ac24ee164eb89, type: 3}
  skillType: 1
  isInvestigated: 0
  SkillLevel: 0
  Dmg: 50
  UseSpeed: 0
  ActTime: 0
  NedeedMP: 0
  SkillPrefab: {fileID: 0}
  isbuff: 0
  addMoveSpeed: 0
  addSpdAttack: 0
  addArrmor: 0
  addHp: 0
  addMp: 0
  maxHp: 0
  maxMp: 0
  addPAttack: 0
  addMAttack: 0
  _minLvlToLearn: 3
  _skillsBlockMe: []
  _skillsPrevsMe:
  - {fileID: 11400000, guid: 4c16f8c875ef3624196b514fc2cc391f, type: 2}
