%YAML 1.1
%TAG !u! tag:unity3d.com,2011:
--- !u!114 &11400000
MonoBehaviour:
  m_ObjectHideFlags: 0
  m_CorrespondingSourceObject: {fileID: 0}
  m_PrefabInstance: {fileID: 0}
  m_PrefabAsset: {fileID: 0}
  m_GameObject: {fileID: 0}
  m_Enabled: 1
  m_EditorHideFlags: 0
  m_Script: {fileID: 11500000, guid: 13587fa391005cf489911c1491d9dc7c, type: 3}
  m_Name: HiddenDagger
  m_EditorClassIdentifier: 
  _character: {fileID: 11400000, guid: 5250d154aa6295e43b3e15714e4eb81b, type: 2}
  SkillName: "\u0421\u043A\u0440\u044B\u0442\u044B\u0439 \u043A\u0438\u043D\u0436\u0430\u043B"
  SkillDisc: "\u041A\u0440\u043E\u043C\u0435 \u0430\u0442\u0430\u043A\u0438 \u043E\u0440\u0443\u0436\u0438\u0435\u043C,
    \u0433\u0435\u0440\u043E\u0439 \u043D\u0435\u0437\u0430\u043C\u0435\u0442\u043D\u043E
    \u043D\u0430\u043D\u043E\u0441\u0438\u0442 \u0443\u0440\u043E\u043D \u0441\u043A\u0440\u044B\u0442\u044B\u043C
    \u043A\u0438\u043D\u0436\u0430\u043B\u043E\u043C \r"
  SkillIcon: {fileID: 21300000, guid: b0c166cfa048dc040b5224a0c6faafdc, type: 3}
  skillType: 1
  isInvestigated: 0
  SkillLevel: 0
  Dmg: 0
  UseSpeed: 0
  ActTime: 0
  NedeedMP: 0
  SkillPrefab: {fileID: 0}
  isbuff: 0
  addMoveSpeed: 0
  addSpdAttack: 0
  addArrmor: 0
  addHp: 0
  addMp: 0
  maxHp: 0
  maxMp: 0
  addPAttack: 15
  addMAttack: 0
  _minLvlToLearn: 12
  _skillsBlockMe:
  - {fileID: 11400000, guid: ef4a02270c173e84a85738e19e8edeea, type: 2}
  _skillsPrevsMe:
  - {fileID: 11400000, guid: d40480658e000af46b5bcf9b38c7e07c, type: 2}
  - {fileID: 11400000, guid: 7d8df77ad4b3c66468bb7ecbc2d13b1f, type: 2}
