%YAML 1.1
%TAG !u! tag:unity3d.com,2011:
--- !u!114 &11400000
MonoBehaviour:
  m_ObjectHideFlags: 0
  m_CorrespondingSourceObject: {fileID: 0}
  m_PrefabInstance: {fileID: 0}
  m_PrefabAsset: {fileID: 0}
  m_GameObject: {fileID: 0}
  m_Enabled: 1
  m_EditorHideFlags: 0
  m_Script: {fileID: 11500000, guid: 13587fa391005cf489911c1491d9dc7c, type: 3}
  m_Name: "Or\u0441Rage"
  m_EditorClassIdentifier: 
  _character: {fileID: 11400000, guid: 5250d154aa6295e43b3e15714e4eb81b, type: 2}
  SkillName: "\u042F\u0440\u043E\u0441\u0442\u044C \u043E\u0440\u043A\u0430"
  SkillDisc: "\u041F\u043E\u0441\u0442\u043E\u044F\u043D\u043D\u043E \u0443\u043B\u0443\u0447\u0448\u0430\u0435\u0442
    \u0441\u043A\u043E\u0440\u043E\u0441\u0442\u044C \u0431\u0435\u0433\u0430, \u0430\u0442\u0430\u043A\u0438
    \u0438 \u0443\u0440\u043E\u043D \u0433\u0435\u0440\u043E\u044F\r"
  SkillIcon: {fileID: 21300000, guid: ca7041940bc00f0429a1604402fb504d, type: 3}
  skillType: 1
  isInvestigated: 0
  SkillLevel: 0
  Dmg: 0
  UseSpeed: 0
  ActTime: 0
  NedeedMP: 0
  SkillPrefab: {fileID: 0}
  isbuff: 0
  addMoveSpeed: 6
  addSpdAttack: 10
  addArrmor: 0
  addHp: 0
  addMp: 0
  maxHp: 0
  maxMp: 0
  addPAttack: 0
  addMAttack: 0
  _minLvlToLearn: 12
  _skillsBlockMe:
  - {fileID: 11400000, guid: 67d2c1a7dd570c546b4af6531e2038ea, type: 2}
  _skillsPrevsMe:
  - {fileID: 11400000, guid: de3a591ec1cddc642a74efd0ddf56189, type: 2}
