%YAML 1.1
%TAG !u! tag:unity3d.com,2011:
--- !u!114 &11400000
MonoBehaviour:
  m_ObjectHideFlags: 0
  m_CorrespondingSourceObject: {fileID: 0}
  m_PrefabInstance: {fileID: 0}
  m_PrefabAsset: {fileID: 0}
  m_GameObject: {fileID: 0}
  m_Enabled: 1
  m_EditorHideFlags: 0
  m_Script: {fileID: 11500000, guid: 13587fa391005cf489911c1491d9dc7c, type: 3}
  m_Name: StunningBlow
  m_EditorClassIdentifier: 
  _character: {fileID: 11400000, guid: 5250d154aa6295e43b3e15714e4eb81b, type: 2}
  SkillName: "\u041E\u0433\u043B\u0443\u0448\u0430\u044E\u0449\u0438\u0439 \u0443\u0434\u0430\u0440"
  SkillDisc: "\u0413\u0435\u0440\u043E\u0439 \u043D\u0430\u043D\u043E\u0441\u0438\u0442
    \u0441\u0432\u0435\u0440\u0445 \u0441\u0438\u043B\u044C\u043D\u044B\u0439 \u0443\u0434\u0430\u0440,
    \u0447\u0442\u043E \u043E\u0433\u043B\u0443\u0448\u0430\u0435\u0442 \u0432\u0440\u0430\u0433\u0430\r"
  SkillIcon: {fileID: 21300000, guid: dfaff46b1db2a444d94cfef177b7814b, type: 3}
  skillType: 0
  isInvestigated: 0
  SkillLevel: 0
  Dmg: 400
  UseSpeed: 10
  ActTime: 2
  NedeedMP: 80
  SkillPrefab: {fileID: 0}
  isbuff: 0
  addMoveSpeed: 100
  addSpdAttack: 100
  addArrmor: 0
  addHp: 0
  addMp: 0
  maxHp: 0
  maxMp: 0
  addPAttack: 0
  addMAttack: 0
  _minLvlToLearn: 6
  _skillsBlockMe:
  - {fileID: 11400000, guid: e39f4da5e9f1bb94899780af8978ff4e, type: 2}
  _skillsPrevsMe:
  - {fileID: 11400000, guid: c991df95fe40fea4ebdb57efe09d4af2, type: 2}
