%YAML 1.1
%TAG !u! tag:unity3d.com,2011:
--- !u!114 &11400000
MonoBehaviour:
  m_ObjectHideFlags: 0
  m_CorrespondingSourceObject: {fileID: 0}
  m_PrefabInstance: {fileID: 0}
  m_PrefabAsset: {fileID: 0}
  m_GameObject: {fileID: 0}
  m_Enabled: 1
  m_EditorHideFlags: 0
  m_Script: {fileID: 11500000, guid: 13587fa391005cf489911c1491d9dc7c, type: 3}
  m_Name: Trap
  m_EditorClassIdentifier: 
  _character: {fileID: 11400000, guid: 5250d154aa6295e43b3e15714e4eb81b, type: 2}
  SkillName: "\u041A\u0430\u043F\u043A\u0430\u043D"
  SkillDisc: "\u0418\u0437\u0434\u0430\u043B\u0435\u043A\u0430 \u043A\u0438\u0434\u0430\u0435\u0442
    \u043F\u0435\u0440\u0441\u043E\u043D\u0430\u0436\u0430 \u0432 \u043C\u0430\u0433\u0438\u0447\u0435\u0441\u043A\u0438\u0439
    \u043A\u0430\u043F\u043A\u0430\u043D \u0438 \u043E\u0431\u0435\u0437\u0434\u0432\u0438\u0436\u0438\u0432\u0430\u0435\u0442
    \u0435\u0433\u043E"
  SkillIcon: {fileID: 21300000, guid: 4114358116828084c92cdb5217a3af1c, type: 3}
  skillType: 0
  isInvestigated: 0
  SkillLevel: 0
  Dmg: 200
  UseSpeed: 10
  ActTime: 3
  NedeedMP: 50
  SkillPrefab: {fileID: 0}
  isbuff: 0
  addMoveSpeed: 100
  addSpdAttack: 0
  addArrmor: 0
  addHp: 0
  addMp: 0
  maxHp: 0
  maxMp: 0
  addPAttack: 0
  addMAttack: 0
  _minLvlToLearn: 3
  _skillsBlockMe: []
  _skillsPrevsMe:
  - {fileID: 11400000, guid: d8676ecf974285640b4e196009699cc4, type: 2}
